<?xml version="1.0" encoding="UTF-8" standalone="no"?>
<svg width="490px" height="277px" viewBox="0 0 490 277" version="1.1" xmlns="http://www.w3.org/2000/svg" xmlns:xlink="http://www.w3.org/1999/xlink">
    <!-- Generator: Sketch 3.7.2 (28276) - http://www.bohemiancoding.com/sketch -->
    <title>Group</title>
    <desc>Created with Sketch.</desc>
    <defs></defs>
    <g id="Page-1" stroke="none" stroke-width="1" fill="none" fill-rule="evenodd">
        <g id="Group" transform="translate(15.000000, 13.000000)">
            <path d="M460,125.656701 C446.185,150.067545 429.351968,170.875258 409.316247,188.169984 C361.285187,230.055406 301.542924,250.95348 230.274557,250.95348 C159.00597,250.95348 99.1730338,230.055406 50.9581994,188.169984 C30.9224788,170.875258 13.9976701,150.067545 0,125.656701 C13.9976701,101.156148 30.9224788,80.2580738 50.9581994,62.7837131 C99.1730338,20.8980738 159.00597,0 230.274557,0 C301.542924,0 361.285187,20.8980738 409.316247,62.7837131 C429.351968,80.2580738 446.185,101.156148 460,125.656701 L460,125.656701 Z" id="outer" stroke="#000000" stroke-width="25.0760002"></path>
            <text id="G" font-family="ArialMT, Arial" font-size="208.301887" font-weight="normal" fill="#000000">
                <tspan x="141.890547" y="199.860656">G</tspan>
            </text>
        </g>
    </g>
</svg>